[9:36:24 PM]  Settings: currentLogLevel = 3                                                                                                                                    (settings.js:21,1)
[9:36:24 PM]  Settings: Opening timestyle-fitbit settings page                                                                                                                 (settings.js:22,1)
[9:36:35 PM] Companion: setting textInput3: null -> {"name":"[ ] Wine [ ] Garibaldi [ ] Tissues  [ ] Cornbeef [ ] Pesto [ ] Wet cat food [ ] Salad [ ] Wedges  [ ] Crisps [ ] Bike indoor [ ] Arnica [ ] Sudafed [ ] Vitamin A [ ] Olive leaf extract [ ] Sage leaf extract"}                                                                                             (common/logging.js:14,5)
[9:37:39 PM] Companion: setting textInput3: {"name":"[ ] Wine [ ] Garibaldi [ ] Tissues  [ ] Cornbeef [ ] Pesto [ ] Wet cat food [ ] Salad [ ] Wedges  [ ] Crisps [ ] Bike indoor [ ] Arnica [ ] Sudafed [ ] Vitamin A [ ] Olive leaf extract [ ] Sage leaf extract"} -> {"name":"[ ] Wine [ ] Garibaldi [ ] Tissues  [ ] Cornbeef [ ] Pesto [ ] Wet cat food [ ] Salad [ ] Wedges  [ ] Crisps [ ] Bike indoor [ ] Arnica [ ] Sudafed [ ] Vitamin A [ ] Olive leaf extract [ ] Sage leaf extract"}                                                                         (common/logging.js:14,5)
[9:37:55 PM] Companion: setting additive: null -> [{"name":"[ ] Wine [ ] Garibaldi [ ] Tissues  [ ] Cornbeef [ ] Pesto [ ] Wet cat food [ ] Salad [ ] Wedges  [ ] Crisps [ ] Bike indoor [ ] Arnica [ ] Sudafed [ ] Vitamin A [ ] Olive leaf extract [ ] Sage leaf extract"}]                                                                                             (common/logging.js:14,5)
[9:38:15 PM] Companion: setting additive: [{"name":"[ ] Wine [ ] Garibaldi [ ] Tissues  [ ] Cornbeef [ ] Pesto [ ] Wet cat food [ ] Salad [ ] Wedges  [ ] Crisps [ ] Bike indoor [ ] Arnica [ ] Sudafed [ ] Vitamin A [ ] Olive leaf extract [ ] Sage leaf extract"}] -> [{"name":"[ ] Wine [ ] Garibaldi [ ] Tissues  [ ] Cornbeef [ ] Pesto [ ] Wet cat food [ ] Salad [ ] Wedges  [ ] Crisps [ ] Bike indoor [ ] Arnica [ ] Sudafed [ ] Vitamin A [ ] Olive leaf extract [ ] Sage leaf extract"},{"name":"Fred"}]                                                       (common/logging.js:14,5)
[9:38:49 PM] Companion: setting additive: [{"name":"[ ] Wine [ ] Garibaldi [ ] Tissues  [ ] Cornbeef [ ] Pesto [ ] Wet cat food [ ] Salad [ ] Wedges  [ ] Crisps [ ] Bike indoor [ ] Arnica [ ] Sudafed [ ] Vitamin A [ ] Olive leaf extract [ ] Sage leaf extract"},{"name":"Fred"}] -> [{"name":"[ ] Wine [ ] Garibaldi [ ] Tissues  [ ] Cornbeef [ ] Pesto [ ] Wet cat food [ ] Salad [ ] Wedges  [ ] Crisps [ ] Bike indoor [ ] Arnica [ ] Sudafed [ ] Vitamin A [ ] Olive leaf extract [ ] Sage leaf extract"},{"name":"Fred"},{"name":"[ ] Wine [ ] Garibaldi [ ] Tissues  [ ] Cornbeef [ ] Pesto [ ] Wet cat food [ ] Salad [ ] Wedges  [ ] Crisps [ ] Bike indoor [ ] Arnica [ ] Sudafed [ ] Vitamin A [ ] Olive leaf extract [ ] Sage leaf extract 2"}]            (common/logging.js:14,5)
[9:39:33 PM]  Settings: Settings Closed
[9:39:35 PM]  Settings: Settings Started
[9:39:36 PM]  Settings: currentLogLevel = 3                                                                                                                                    (settings.js:21,1)
[9:39:36 PM]  Settings: Opening timestyle-fitbit settings page                                                                                                                 (settings.js:22,1)
[9:39:46 PM] Companion: setting additive: [{"name":"[ ] Wine [ ] Garibaldi [ ] Tissues  [ ] Cornbeef [ ] Pesto [ ] Wet cat food [ ] Salad [ ] Wedges  [ ] Crisps [ ] Bike indoor [ ] Arnica [ ] Sudafed [ ] Vitamin A [ ] Olive leaf extract [ ] Sage leaf extract"},{"name":"Fred"},{"name":"[ ] Wine [ ] Garibaldi [ ] Tissues  [ ] Cornbeef [ ] Pesto [ ] Wet cat food [ ] Salad [ ] Wedges  [ ] Crisps [ ] Bike indoor [ ] Arnica [ ] Sudafed [ ] Vitamin A [ ] Olive leaf extract [ ] Sage leaf extract 2"}] -> [{"name":"[ ] Wine [ ] Garibaldi [ ] Tissues  [ ] Cornbeef [ ] Pesto [ ] Wet cat food [ ] Salad [ ] Wedges  [ ] Crisps [ ] Bike indoor [ ] Arnica [ ] Sudafed [ ] Vitamin A [ ] Olive leaf extract [ ] Sage leaf extract"},{"name":"Fred"},{"name":"[ ] Wine [ ] Garibaldi [ ] Tissues  [ ] Cornbeef [ ] Pesto [ ] Wet cat food [ ] Salad [ ] Wedges  [ ] Crisps [ ] Bike indoor [ ] Arnica [ ] Sudafed [ ] Vitamin A [ ] Olive leaf extract [ ] Sage leaf extract 2"},{"name":"Ggg"}]                                                                                                                                                                   (common/logging.js:14,5)
[9:39:51 PM] Companion: setting additive: [{"name":"[ ] Wine [ ] Garibaldi [ ] Tissues  [ ] Cornbeef [ ] Pesto [ ] Wet cat food [ ] Salad [ ] Wedges  [ ] Crisps [ ] Bike indoor [ ] Arnica [ ] Sudafed [ ] Vitamin A [ ] Olive leaf extract [ ] Sage leaf extract"},{"name":"Fred"},{"name":"[ ] Wine [ ] Garibaldi [ ] Tissues  [ ] Cornbeef [ ] Pesto [ ] Wet cat food [ ] Salad [ ] Wedges  [ ] Crisps [ ] Bike indoor [ ] Arnica [ ] Sudafed [ ] Vitamin A [ ] Olive leaf extract [ ] Sage leaf extract 2"},{"name":"Ggg"}] -> [{"name":"[ ] Wine [ ] Garibaldi [ ] Tissues  [ ] Cornbeef [ ] Pesto [ ] Wet cat food [ ] Salad [ ] Wedges  [ ] Crisps [ ] Bike indoor [ ] Arnica [ ] Sudafed [ ] Vitamin A [ ] Olive leaf extract [ ] Sage leaf extract"},{"name":"Fred"},{"name":"[ ] Wine [ ] Garibaldi [ ] Tissues  [ ] Cornbeef [ ] Pesto [ ] Wet cat food [ ] Salad [ ] Wedges  [ ] Crisps [ ] Bike indoor [ ] Arnica [ ] Sudafed [ ] Vitamin A [ ] Olive leaf extract [ ] Sage leaf extract 2"},{"name":"Ggg"},{"name":"Ggggg"}]                                                                                                                                   (common/logging.js:14,5)
[9:40:06 PM] Companion: setting additive: [{"name":"[ ] Wine [ ] Garibaldi [ ] Tissues  [ ] Cornbeef [ ] Pesto [ ] Wet cat food [ ] Salad [ ] Wedges  [ ] Crisps [ ] Bike indoor [ ] Arnica [ ] Sudafed [ ] Vitamin A [ ] Olive leaf extract [ ] Sage leaf extract"},{"name":"Fred"},{"name":"[ ] Wine [ ] Garibaldi [ ] Tissues  [ ] Cornbeef [ ] Pesto [ ] Wet cat food [ ] Salad [ ] Wedges  [ ] Crisps [ ] Bike indoor [ ] Arnica [ ] Sudafed [ ] Vitamin A [ ] Olive leaf extract [ ] Sage leaf extract 2"},{"name":"Ggg"},{"name":"Ggggg"}] -> [{"name":"[ ] Wine [ ] Garibaldi [ ] Tissues  [ ] Cornbeef [ ] Pesto [ ] Wet cat food [ ] Salad [ ] Wedges  [ ] Crisps [ ] Bike indoor [ ] Arnica [ ] Sudafed [ ] Vitamin A [ ] Olive leaf extract [ ] Sage leaf extract"},{"name":"Fred"},{"name":"[ ] Wine [ ] Garibaldi [ ] Tissues  [ ] Cornbeef [ ] Pesto [ ] Wet cat food [ ] Salad [ ] Wedges  [ ] Crisps [ ] Bike indoor [ ] Arnica [ ] Sudafed [ ] Vitamin A [ ] Olive leaf extract [ ] Sage leaf extract 2"},{"name":"Ggg"},{"name":"Ggggg"},{"name":"Dddd"}]                                                                                                  (common/logging.js:14,5)
[9:40:17 PM] Companion: Companion was already awake - onwakeinterval